build/test_tpu.vcd
$date
	Wed Oct 25 14:37:19 2023
$end
$version
	Icarus Verilog
$end
$timescale
	100ps
$end
$scope module test_tpu $end
$var wire 4 ! sram_bytemask_a [3:0] $end
$var wire 4 " sram_bytemask_b [3:0] $end
$var wire 6 # sram_raddr_c0 [5:0] $end
$var wire 6 $ sram_raddr_c1 [5:0] $end
$var wire 6 % sram_raddr_c2 [5:0] $end
$var wire 10 & sram_waddr_a [9:0] $end
$var wire 10 ' sram_waddr_b [9:0] $end
$var wire 8 ( sram_wdata_a [7:0] $end
$var wire 8 ) sram_wdata_b [7:0] $end
$var wire 1 * sram_write_enable_a0 $end
$var wire 1 + sram_write_enable_a1 $end
$var wire 1 , sram_write_enable_b0 $end
$var wire 1 - sram_write_enable_b1 $end
$var wire 1 . tpu_finish $end
$var wire 1 / sram_write_enable_c2 $end
$var wire 1 0 sram_write_enable_c1 $end
$var wire 1 1 sram_write_enable_c0 $end
$var wire 128 2 sram_wdata_c2 [127:0] $end
$var wire 128 3 sram_wdata_c1 [127:0] $end
$var wire 128 4 sram_wdata_c0 [127:0] $end
$var wire 6 5 sram_waddr_c2 [5:0] $end
$var wire 6 6 sram_waddr_c1 [5:0] $end
$var wire 6 7 sram_waddr_c0 [5:0] $end
$var wire 128 8 sram_rdata_c2 [127:0] $end
$var wire 128 9 sram_rdata_c1 [127:0] $end
$var wire 128 : sram_rdata_c0 [127:0] $end
$var wire 32 ; sram_rdata_b1 [31:0] $end
$var wire 32 < sram_rdata_b0 [31:0] $end
$var wire 32 = sram_rdata_a1 [31:0] $end
$var wire 32 > sram_rdata_a0 [31:0] $end
$var wire 10 ? sram_raddr_b1 [9:0] $end
$var wire 10 @ sram_raddr_b0 [9:0] $end
$var wire 10 A sram_raddr_a1 [9:0] $end
$var wire 10 B sram_raddr_a0 [9:0] $end
$var parameter 32 C ARRAY_SIZE $end
$var parameter 32 D DATA_WIDTH $end
$var parameter 32 E OUT_DATA_WIDTH $end
$var parameter 32 F SRAM_DATA_WIDTH $end
$var parameter 32 G WEIGHT_NUM $end
$var parameter 32 H WEIGHT_WIDTH $end
$var reg 1 I clk $end
$var reg 1 J srstn $end
$var reg 1 K tpu_start $end
$var integer 32 L cycle_cnt [31:0] $end
$var integer 32 M i [31:0] $end
$var integer 32 N j [31:0] $end
$scope module my_tpu_top $end
$var wire 1 I clk $end
$var wire 1 J srstn $end
$var wire 1 K tpu_start $end
$var wire 1 . tpu_done $end
$var wire 1 / sram_write_enable_c0 $end
$var wire 1 0 sram_write_enable_b0 $end
$var wire 1 1 sram_write_enable_a0 $end
$var wire 1 O sram_write_enable $end
$var wire 128 P sram_wdata_c [127:0] $end
$var wire 128 Q sram_wdata_b [127:0] $end
$var wire 128 R sram_wdata_a [127:0] $end
$var wire 6 S sram_waddr_c [5:0] $end
$var wire 6 T sram_waddr_b [5:0] $end
$var wire 6 U sram_waddr_a [5:0] $end
$var wire 32 V sram_rdata_w1 [31:0] $end
$var wire 32 W sram_rdata_w0 [31:0] $end
$var wire 32 X sram_rdata_d1 [31:0] $end
$var wire 32 Y sram_rdata_d0 [31:0] $end
$var wire 10 Z sram_raddr_w1 [9:0] $end
$var wire 10 [ sram_raddr_w0 [9:0] $end
$var wire 10 \ sram_raddr_d1 [9:0] $end
$var wire 10 ] sram_raddr_d0 [9:0] $end
$var wire 128 ^ quantized_data [127:0] $end
$var wire 168 _ ori_data [167:0] $end
$var wire 6 ` matrix_index [5:0] $end
$var wire 2 a data_set [1:0] $end
$var wire 9 b cycle_num [8:0] $end
$var wire 1 c alu_start $end
$var wire 7 d addr_serial_num [6:0] $end
$var parameter 32 e ARRAY_SIZE $end
$var parameter 32 f DATA_WIDTH $end
$var parameter 34 g ORI_WIDTH $end
$var parameter 32 h OUTPUT_DATA_WIDTH $end
$var parameter 32 i SRAM_DATA_WIDTH $end
$scope module addr_sel $end
$var wire 1 I clk $end
$var wire 10 j sram_raddr_w1_nx [9:0] $end
$var wire 10 k sram_raddr_w0_nx [9:0] $end
$var wire 10 l sram_raddr_d1_nx [9:0] $end
$var wire 10 m sram_raddr_d0_nx [9:0] $end
$var wire 7 n addr_serial_num [6:0] $end
$var reg 10 o sram_raddr_d0 [9:0] $end
$var reg 10 p sram_raddr_d1 [9:0] $end
$var reg 10 q sram_raddr_w0 [9:0] $end
$var reg 10 r sram_raddr_w1 [9:0] $end
$upscope $end
$scope module quantize $end
$var wire 168 s ori_data [167:0] $end
$var parameter 32 t ARRAY_SIZE $end
$var parameter 32 u DATA_WIDTH $end
$var parameter 34 v ORI_WIDTH $end
$var parameter 32 w OUTPUT_DATA_WIDTH $end
$var parameter 32 x SRAM_DATA_WIDTH $end
$var parameter 32 y max_val $end
$var parameter 32 z min_val $end
$var reg 21 { ori_shifted_data [20:0] $end
$var reg 128 | quantized_data [127:0] $end
$var integer 32 } i [31:0] $end
$upscope $end
$scope module systolic $end
$var wire 1 I clk $end
$var wire 1 J srstn $end
$var wire 32 ~ sram_rdata_w1 [31:0] $end
$var wire 32 !" sram_rdata_w0 [31:0] $end
$var wire 32 "" sram_rdata_d1 [31:0] $end
$var wire 32 #" sram_rdata_d0 [31:0] $end
$var wire 6 $" matrix_index [5:0] $end
$var wire 9 %" cycle_num [8:0] $end
$var wire 1 c alu_start $end
$var parameter 32 &" ARRAY_SIZE $end
$var parameter 32 '" DATA_WIDTH $end
$var parameter 33 (" FIRST_OUT $end
$var parameter 34 )" OUTCOME_WIDTH $end
$var parameter 34 *" PARALLEL_START $end
$var parameter 32 +" SRAM_DATA_WIDTH $end
$var reg 6 ," lower_bound [5:0] $end
$var reg 168 -" mul_outcome [167:0] $end
$var reg 16 ." mul_result [15:0] $end
$var reg 6 /" upper_bound [5:0] $end
$var integer 32 0" i [31:0] $end
$var integer 32 1" j [31:0] $end
$upscope $end
$scope module systolic_controll $end
$var wire 1 I clk $end
$var wire 1 J srstn $end
$var wire 1 K tpu_start $end
$var parameter 32 2" ARRAY_SIZE $end
$var parameter 3 3" IDLE $end
$var parameter 3 4" LOAD_DATA $end
$var parameter 3 5" ROLLING $end
$var parameter 3 6" WAIT1 $end
$var reg 7 7" addr_serial_num [6:0] $end
$var reg 7 8" addr_serial_num_nx [6:0] $end
$var reg 1 c alu_start $end
$var reg 9 9" cycle_num [8:0] $end
$var reg 9 :" cycle_num_nx [8:0] $end
$var reg 2 ;" data_set [1:0] $end
$var reg 2 <" data_set_nx [1:0] $end
$var reg 6 =" matrix_index [5:0] $end
$var reg 6 >" matrix_index_nx [5:0] $end
$var reg 1 O sram_write_enable $end
$var reg 3 ?" state [2:0] $end
$var reg 3 @" state_nx [2:0] $end
$var reg 1 . tpu_done $end
$var reg 1 A" tpu_done_nx $end
$upscope $end
$scope module write_out $end
$var wire 1 I clk $end
$var wire 2 B" data_set [1:0] $end
$var wire 6 C" matrix_index [5:0] $end
$var wire 128 D" quantized_data [127:0] $end
$var wire 1 O sram_write_enable $end
$var wire 1 J srstn $end
$var parameter 32 E" ARRAY_SIZE $end
$var parameter 33 F" MAX_INDEX $end
$var parameter 32 G" OUTPUT_DATA_WIDTH $end
$var reg 6 H" sram_waddr_a [5:0] $end
$var reg 6 I" sram_waddr_a_nx [5:0] $end
$var reg 6 J" sram_waddr_b [5:0] $end
$var reg 6 K" sram_waddr_b_nx [5:0] $end
$var reg 6 L" sram_waddr_c [5:0] $end
$var reg 6 M" sram_waddr_c_nx [5:0] $end
$var reg 128 N" sram_wdata_a [127:0] $end
$var reg 128 O" sram_wdata_a_nx [127:0] $end
$var reg 128 P" sram_wdata_b [127:0] $end
$var reg 128 Q" sram_wdata_b_nx [127:0] $end
$var reg 128 R" sram_wdata_c [127:0] $end
$var reg 128 S" sram_wdata_c_nx [127:0] $end
$var reg 1 1 sram_write_enable_a0 $end
$var reg 1 T" sram_write_enable_a0_nx $end
$var reg 1 0 sram_write_enable_b0 $end
$var reg 1 U" sram_write_enable_b0_nx $end
$var reg 1 / sram_write_enable_c0 $end
$var reg 1 V" sram_write_enable_c0_nx $end
$var integer 32 W" i [31:0] $end
$upscope $end
$upscope $end
$scope module sram_128x32b_a0 $end
$var wire 4 X" bytemask [3:0] $end
$var wire 1 I clk $end
$var wire 1 Y" csb $end
$var wire 10 Z" raddr [9:0] $end
$var wire 10 [" waddr [9:0] $end
$var wire 8 \" wdata [7:0] $end
$var wire 1 * wsb $end
$var reg 32 ]" _rdata [31:0] $end
$var reg 32 ^" rdata [31:0] $end
$scope task char2sram $end
$var reg 32 _" char_in [31:0] $end
$var reg 32 `" index [31:0] $end
$upscope $end
$scope task display $end
$var reg 8 a" index_0 [7:0] $end
$var reg 8 b" index_1 [7:0] $end
$var reg 8 c" index_2 [7:0] $end
$var reg 8 d" index_3 [7:0] $end
$var integer 32 e" this_i [31:0] $end
$upscope $end
$upscope $end
$scope module sram_128x32b_a1 $end
$var wire 4 f" bytemask [3:0] $end
$var wire 1 I clk $end
$var wire 1 g" csb $end
$var wire 10 h" raddr [9:0] $end
$var wire 10 i" waddr [9:0] $end
$var wire 8 j" wdata [7:0] $end
$var wire 1 + wsb $end
$var reg 32 k" _rdata [31:0] $end
$var reg 32 l" rdata [31:0] $end
$scope task char2sram $end
$var reg 32 m" char_in [31:0] $end
$var reg 32 n" index [31:0] $end
$upscope $end
$scope task display $end
$var reg 8 o" index_0 [7:0] $end
$var reg 8 p" index_1 [7:0] $end
$var reg 8 q" index_2 [7:0] $end
$var reg 8 r" index_3 [7:0] $end
$var integer 32 s" this_i [31:0] $end
$upscope $end
$upscope $end
$scope module sram_128x32b_b0 $end
$var wire 4 t" bytemask [3:0] $end
$var wire 1 I clk $end
$var wire 1 u" csb $end
$var wire 10 v" raddr [9:0] $end
$var wire 10 w" waddr [9:0] $end
$var wire 8 x" wdata [7:0] $end
$var wire 1 , wsb $end
$var reg 32 y" _rdata [31:0] $end
$var reg 32 z" rdata [31:0] $end
$scope task char2sram $end
$var reg 32 {" char_in [31:0] $end
$var reg 32 |" index [31:0] $end
$upscope $end
$scope task display $end
$var reg 8 }" index_0 [7:0] $end
$var reg 8 ~" index_1 [7:0] $end
$var reg 8 !# index_2 [7:0] $end
$var reg 8 "# index_3 [7:0] $end
$var integer 32 ## this_i [31:0] $end
$upscope $end
$upscope $end
$scope module sram_128x32b_b1 $end
$var wire 4 $# bytemask [3:0] $end
$var wire 1 I clk $end
$var wire 1 %# csb $end
$var wire 10 &# raddr [9:0] $end
$var wire 10 '# waddr [9:0] $end
$var wire 8 (# wdata [7:0] $end
$var wire 1 - wsb $end
$var reg 32 )# _rdata [31:0] $end
$var reg 32 *# rdata [31:0] $end
$scope task char2sram $end
$var reg 32 +# char_in [31:0] $end
$var reg 32 ,# index [31:0] $end
$upscope $end
$scope task display $end
$var reg 8 -# index_0 [7:0] $end
$var reg 8 .# index_1 [7:0] $end
$var reg 8 /# index_2 [7:0] $end
$var reg 8 0# index_3 [7:0] $end
$var integer 32 1# this_i [31:0] $end
$upscope $end
$upscope $end
$scope module sram_16x128b_c0 $end
$var wire 1 I clk $end
$var wire 1 2# csb $end
$var wire 6 3# raddr [5:0] $end
$var wire 6 4# waddr [5:0] $end
$var wire 128 5# wdata [127:0] $end
$var wire 1 1 wsb $end
$var parameter 32 6# WEIGHT_PIXEL_NUM $end
$var parameter 32 7# WEIGHT_WIDTH $end
$var reg 128 8# _rdata [127:0] $end
$var reg 128 9# rdata [127:0] $end
$scope task dis $end
$var integer 32 :# i [31:0] $end
$upscope $end
$scope task load_w $end
$var reg 128 ;# weight_input [127:0] $end
$var integer 32 <# index [31:0] $end
$upscope $end
$upscope $end
$scope module sram_16x128b_c1 $end
$var wire 1 I clk $end
$var wire 1 =# csb $end
$var wire 6 ># raddr [5:0] $end
$var wire 6 ?# waddr [5:0] $end
$var wire 128 @# wdata [127:0] $end
$var wire 1 0 wsb $end
$var parameter 32 A# WEIGHT_PIXEL_NUM $end
$var parameter 32 B# WEIGHT_WIDTH $end
$var reg 128 C# _rdata [127:0] $end
$var reg 128 D# rdata [127:0] $end
$scope task dis $end
$var integer 32 E# i [31:0] $end
$upscope $end
$scope task load_w $end
$var reg 128 F# weight_input [127:0] $end
$var integer 32 G# index [31:0] $end
$upscope $end
$upscope $end
$scope module sram_16x128b_c2 $end
$var wire 1 I clk $end
$var wire 1 H# csb $end
$var wire 6 I# raddr [5:0] $end
$var wire 6 J# waddr [5:0] $end
$var wire 128 K# wdata [127:0] $end
$var wire 1 / wsb $end
$var parameter 32 L# WEIGHT_PIXEL_NUM $end
$var parameter 32 M# WEIGHT_WIDTH $end
$var reg 128 N# _rdata [127:0] $end
$var reg 128 O# rdata [127:0] $end
$scope task dis $end
$var integer 32 P# i [31:0] $end
$upscope $end
$scope task load_w $end
$var reg 128 Q# weight_input [127:0] $end
$var integer 32 R# index [31:0] $end
$upscope $end
$upscope $end
$scope task data2sram $end
$upscope $end
$scope task display_data $end
$var integer 32 S# this_i [31:0] $end
$var integer 32 T# this_j [31:0] $end
$var integer 32 U# this_k [31:0] $end
$upscope $end
$scope task golden_transform $end
$var integer 32 V# this_i [31:0] $end
$var integer 32 W# this_j [31:0] $end
$var integer 32 X# this_k [31:0] $end
$upscope $end
$upscope $end
$enddefinitions $end
$comment Show the parameter values. $end
$dumpall
b10000 M#
b1000 L#
b10000 B#
b1000 A#
b10000 7#
b1000 6#
b10000 G"
b111 F"
b1000 E"
b10 6"
b11 5"
b1 4"
b0 3"
b1000 2"
b100000 +"
b10001 *"
b10101 )"
b1001 ("
b1000 '"
b1000 &"
b11111111111111111000000000000000 z
b111111111111111 y
b100000 x
b10000 w
b10101 v
b1000 u
b1000 t
b100000 i
b10000 h
b10101 g
b1000 f
b1000 e
b100 H
b11001 G
b100000 F
b10000 E
b1000 D
b1000 C
$end
#0
$dumpvars
bx X#
bx W#
bx V#
bx U#
bx T#
bx S#
bx R#
bx Q#
bx P#
bx O#
bx N#
bx K#
bx J#
bz I#
0H#
bx G#
bx F#
bx E#
bx D#
bx C#
bx @#
bx ?#
bz >#
0=#
bx <#
bx ;#
bx :#
bx 9#
bx 8#
bx 5#
bx 4#
bz 3#
02#
bx 1#
bx 0#
bx /#
bx .#
bx -#
bx ,#
bx +#
bx *#
bx )#
bz (#
bz '#
b0xxxxxxx &#
0%#
bz $#
bx ##
bx "#
bx !#
bx ~"
bx }"
bx |"
bx {"
bx z"
bx y"
bz x"
bz w"
b0xxxxxxx v"
0u"
bz t"
bx s"
bx r"
bx q"
bx p"
bx o"
bx n"
bx m"
bx l"
bx k"
bz j"
bz i"
b0xxxxxxx h"
0g"
bz f"
bx e"
bx d"
bx c"
bx b"
bx a"
bx `"
bx _"
bx ^"
bx ]"
bz \"
bz ["
b0xxxxxxx Z"
0Y"
bz X"
bx W"
xV"
xU"
xT"
bx S"
bx R"
bx Q"
bx P"
bx O"
bx N"
bx M"
bx L"
bx K"
bx J"
bx I"
bx H"
bx D"
bx C"
bx B"
xA"
bx @"
bx ?"
bx >"
bx ="
bx <"
bx ;"
bx :"
bx 9"
bx 8"
bx 7"
b1000 1"
b1000 0"
bx /"
bx ."
bx -"
bx ,"
bx %"
bx $"
bx #"
bx ""
bx !"
bx ~
bx }
bx |
bx {
bx s
b0xxxxxxx r
b0xxxxxxx q
b0xxxxxxx p
b0xxxxxxx o
bx n
b0xxxxxxx m
b0xxxxxxx l
b0xxxxxxx k
b0xxxxxxx j
bx d
xc
bx b
bx a
bx `
bx _
bx ^
b0xxxxxxx ]
b0xxxxxxx \
b0xxxxxxx [
b0xxxxxxx Z
bx Y
bx X
bx W
bx V
bx U
bx T
bx S
bx R
bx Q
bx P
xO
bx N
bx M
bx L
xK
1J
1I
b0xxxxxxx B
b0xxxxxxx A
b0xxxxxxx @
b0xxxxxxx ?
bx >
bx =
bx <
bx ;
bx :
bx 9
bx 8
bx 7
bx 6
bx 5
bx 4
bx 3
bx 2
x1
x0
x/
x.
z-
z,
z+
z*
bz )
bz (
bz '
bz &
bz %
bz $
bz #
bz "
bz !
$end
#100
0J
b0 8"
0A"
b0 @"
0I
b0 L
0K
b1000 T#
b1000 S#
b11 U#
b1000 W#
b0 V#
b1111 X#
b0 +#
b1111111 ,#
b0 {"
b1111111 |"
b0 m"
b1111111 n"
b0 _"
b1111111 `"
b1000 N
b10000000 M
#150
b0 ^
b0 |
b0 D"
b0 {
b1000 }
b1111111 l
b0 m
b1111111 j
b0 k
b0 M"
b0 S"
1V"
b0 K"
b0 Q"
1U"
b0 I"
b0 O"
b10000000 W"
1T"
0O
b0 <"
b0 >"
b0 :"
0c
b0 _
b0 s
b0 -"
b1000 ,"
b0 /"
b0 ."
b0 5
b0 S
b0 L"
b0 J#
b0 6
b0 T
b0 J"
b0 ?#
b0 7
b0 U
b0 H"
b0 4#
b0 2
b0 P
b0 R"
b0 K#
b0 3
b0 Q
b0 P"
b0 @#
b0 4
b0 R
b0 N"
b0 5#
1/
10
11
0.
b0 d
b0 n
b0 7"
b0 `
b0 $"
b0 ="
b0 C"
b0 b
b0 %"
b0 9"
b0 a
b0 ;"
b0 B"
b0 ?"
b1000 1"
b1000 0"
1I
#200
b1 @"
1K
1J
0I
#250
b1 8"
b10 @"
b1111111 ?
b1111111 \
b1111111 p
b1111111 &#
b0 @
b0 ]
b0 o
b0 v"
b1111111 A
b1111111 Z
b1111111 r
b1111111 h"
b0 B
b0 [
b0 q
b0 Z"
b1 ?"
b1000 1"
b1000 0"
1I
#300
0K
0I
#350
b0 ;
b0 X
b0 ""
b0 *#
b1100011000000000000000000000000 <
b1100011000000000000000000000000 Y
b1100011000000000000000000000000 #"
b1100011000000000000000000000000 z"
b0 =
b0 V
b0 ~
b0 l"
b10101111000000000000000000000000 >
b10101111000000000000000000000000 W
b10101111000000000000000000000000 !"
b10101111000000000000000000000000 ^"
b1 m
b1 k
b10 8"
b11 @"
b0 )#
b1100011000000000000000000000000 y"
b0 k"
b10101111000000000000000000000000 ]"
b1 d
b1 n
b1 7"
b10 ?"
b1000 1"
b1000 0"
1I
#400
b1 L
0I
#450
b10 m
b10 k
b1 :"
1c
b11 8"
b1 @
b1 ]
b1 o
b1 v"
b1 B
b1 [
b1 q
b1 Z"
b10 d
b10 n
b10 7"
b11 ?"
b1000 1"
b1000 0"
1I
#500
b10 L
0I
#550
b11010000101000110000000000000000 <
b11010000101000110000000000000000 Y
b11010000101000110000000000000000 #"
b11010000101000110000000000000000 z"
b10011110111111110000000000000000 >
b10011110111111110000000000000000 W
b10011110111111110000000000000000 !"
b10011110111111110000000000000000 ^"
b11 m
b11 k
b100 8"
b10 :"
b0 ."
b11010000101000110000000000000000 y"
b10011110111111110000000000000000 ]"
b11 d
b11 n
b11 7"
b1 b
b1 %"
b1 9"
b10 @
b10 ]
b10 o
b10 v"
b10 B
b10 [
b10 q
b10 Z"
b1000 1"
b1000 0"
1I
#600
b11 L
0I
#650
b10000000 W"
b1110000010101101 ^
b1110000010101101 |
b1110000010101101 D"
b0 {
b1000 }
b0 l
b0 j
b111111110000010101101 _
b111111110000010101101 s
b111111110000010101101 -"
b100 m
b100 k
b101 8"
b0 ."
b11 :"
b1101110010100011111101000000000 >
b1101110010100011111101000000000 W
b1101110010100011111101000000000 !"
b1101110010100011111101000000000 ^"
b1001101011110110111010100000000 <
b1001101011110110111010100000000 Y
b1001101011110110111010100000000 #"
b1001101011110110111010100000000 z"
b11 @
b11 ]
b11 o
b11 v"
b11 B
b11 [
b11 q
b11 Z"
b100 d
b100 n
b100 7"
b10 b
b10 %"
b10 9"
b1101110010100011111101000000000 ]"
b1001101011110110111010100000000 y"
b1000 1"
b1000 0"
1I
#700
b100 L
0I
#750
b10000000 W"
b1111001100001101 ^
b1111001100001101 |
b1111001100001101 D"
b0 {
b1000 }
b11000100101001110010000100001000 <
b11000100101001110010000100001000 Y
b11000100101001110010000100001000 #"
b11000100101001110010000100001000 z"
b10011111101101001100101111010010 >
b10011111101101001100101111010010 W
b10011111101101001100101111010010 !"
b10011111101101001100101111010010 ^"
b1 l
b101 m
b1 j
b101 k
b110 8"
b100 :"
b111111111001100001101 _
b111111111001100001101 s
b111111111001100001101 -"
b0 ."
b11000100101001110010000100001000 y"
b10011111101101001100101111010010 ]"
b101 d
b101 n
b101 7"
b11 b
b11 %"
b11 9"
b0 ?
b0 \
b0 p
b0 &#
b100 @
b100 ]
b100 o
b100 v"
b0 A
b0 Z
b0 r
b0 h"
b100 B
b100 [
b100 q
b100 Z"
b1000 1"
b1000 0"
1I
#800
b101 L
0I
#850
b10000000 W"
b1010000100011 ^
b1010000100011 |
b1010000100011 D"
b0 {
b1000 }
b1010000100011 _
b1010000100011 s
b1010000100011 -"
b10 l
b110 m
b10 j
b110 k
b111 8"
b0 ."
b101 :"
b1110111000000100000010101011 >
b1110111000000100000010101011 W
b1110111000000100000010101011 !"
b1110111000000100000010101011 ^"
b10001011000000000000000000000000 =
b10001011000000000000000000000000 V
b10001011000000000000000000000000 ~
b10001011000000000000000000000000 l"
b1101101000011110001110001011111 <
b1101101000011110001110001011111 Y
b1101101000011110001110001011111 #"
b1101101000011110001110001011111 z"
b1101000000000000000000000000000 ;
b1101000000000000000000000000000 X
b1101000000000000000000000000000 ""
b1101000000000000000000000000000 *#
b1 ?
b1 \
b1 p
b1 &#
b101 @
b101 ]
b101 o
b101 v"
b1 A
b1 Z
b1 r
b1 h"
b101 B
b101 [
b101 q
b101 Z"
b110 d
b110 n
b110 7"
b100 b
b100 %"
b100 9"
b1110111000000100000010101011 ]"
b10001011000000000000000000000000 k"
b1101101000011110001110001011111 y"
b1101000000000000000000000000000 )#
b1000 1"
b1000 0"
1I
#900
b110 L
0I
#950
b10000000 W"
b10101011011111 ^
b10101011011111 |
b10101011011111 D"
b0 {
b1000 }
b1111101001011100000000000000000 ;
b1111101001011100000000000000000 X
b1111101001011100000000000000000 ""
b1111101001011100000000000000000 *#
b10011011000101101000100010001111 <
b10011011000101101000100010001111 Y
b10011011000101101000100010001111 #"
b10011011000101101000100010001111 z"
b11100111001101110000000000000000 =
b11100111001101110000000000000000 V
b11100111001101110000000000000000 ~
b11100111001101110000000000000000 l"
b11111001010010000001011111111101 >
b11111001010010000001011111111101 W
b11111001010010000001011111111101 !"
b11111001010010000001011111111101 ^"
b11 l
b111 m
b11 j
b111 k
b1000 8"
b110 :"
b10101011011111 _
b10101011011111 s
b10101011011111 -"
b0 ."
b1111101001011100000000000000000 )#
b10011011000101101000100010001111 y"
b11100111001101110000000000000000 k"
b11111001010010000001011111111101 ]"
b111 d
b111 n
b111 7"
b101 b
b101 %"
b101 9"
b10 ?
b10 \
b10 p
b10 &#
b110 @
b110 ]
b110 o
b110 v"
b10 A
b10 Z
b10 r
b10 h"
b110 B
b110 [
b110 q
b110 Z"
b1000 1"
b1000 0"
1I
#1000
b111 L
0I
#1050
b10000000 W"
b11000011010101 ^
b11000011010101 |
b11000011010101 D"
b0 {
b1000 }
b11000011010101 _
b11000011010101 s
b11000011010101 -"
b100 l
b1000 m
b100 j
b1000 k
b1001 8"
b0 ."
b111 :"
b10111111110100010010101111110000 >
b10111111110100010010101111110000 W
b10111111110100010010101111110000 !"
b10111111110100010010101111110000 ^"
b110011011110001111001000000000 =
b110011011110001111001000000000 V
b110011011110001111001000000000 ~
b110011011110001111001000000000 l"
b100101000011011010111010110001 <
b100101000011011010111010110001 Y
b100101000011011010111010110001 #"
b100101000011011010111010110001 z"
b10000110100100011101011100000000 ;
b10000110100100011101011100000000 X
b10000110100100011101011100000000 ""
b10000110100100011101011100000000 *#
b11 ?
b11 \
b11 p
b11 &#
b111 @
b111 ]
b111 o
b111 v"
b11 A
b11 Z
b11 r
b11 h"
b111 B
b111 [
b111 q
b111 Z"
b1000 d
b1000 n
b1000 7"
b110 b
b110 %"
b110 9"
b10111111110100010010101111110000 ]"
b110011011110001111001000000000 k"
b100101000011011010111010110001 y"
b10000110100100011101011100000000 )#
b1000 1"
b1000 0"
1I
#1100
b1000 L
0I
#1150
b10000000 W"
b11001110011000 ^
b11001110011000 |
b11001110011000 D"
b0 {
b1000 }
b1011001000101110101111001101010 ;
b1011001000101110101111001101010 X
b1011001000101110101111001101010 ""
b1011001000101110101111001101010 *#
b1100110101111110100001001100100 <
b1100110101111110100001001100100 Y
b1100110101111110100001001100100 #"
b1100110101111110100001001100100 z"
b1111011011100111001001100000110 =
b1111011011100111001001100000110 V
b1111011011100111001001100000110 ~
b1111011011100111001001100000110 l"
b10111001110000100001101111100111 >
b10111001110000100001101111100111 W
b10111001110000100001101111100111 !"
b10111001110000100001101111100111 ^"
b101 l
b1001 m
b101 j
b1001 k
b1010 8"
b1000 :"
b11001110011000 _
b11001110011000 s
b11001110011000 -"
b0 ."
b1011001000101110101111001101010 )#
b1100110101111110100001001100100 y"
b1111011011100111001001100000110 k"
b10111001110000100001101111100111 ]"
b1001 d
b1001 n
b1001 7"
b111 b
b111 %"
b111 9"
b100 ?
b100 \
b100 p
b100 &#
b1000 @
b1000 ]
b1000 o
b1000 v"
b100 A
b100 Z
b100 r
b100 h"
b1000 B
b1000 [
b1000 q
b1000 Z"
b1000 1"
b1000 0"
1I
#1200
b1001 L
0I
#1250
b10000000 W"
b10101000110011 ^
b10101000110011 |
b10101000110011 D"
b0 {
b1000 }
b10101000110011 _
b10101000110011 s
b10101000110011 -"
b110 l
b1010 m
b110 j
b1010 k
b1011 8"
b0 ."
b1001 :"
b10001001000000011001100111001111 >
b10001001000000011001100111001111 W
b10001001000000011001100111001111 !"
b10001001000000011001100111001111 ^"
b111010101011101010010011111011 =
b111010101011101010010011111011 V
b111010101011101010010011111011 ~
b111010101011101010010011111011 l"
b11000110101101010011010100110000 <
b11000110101101010011010100110000 Y
b11000110101101010011010100110000 #"
b11000110101101010011010100110000 z"
b10111110100100110001001111111101 ;
b10111110100100110001001111111101 X
b10111110100100110001001111111101 ""
b10111110100100110001001111111101 *#
b101 ?
b101 \
b101 p
b101 &#
b1001 @
b1001 ]
b1001 o
b1001 v"
b101 A
b101 Z
b101 r
b101 h"
b1001 B
b1001 [
b1001 q
b1001 Z"
b1010 d
b1010 n
b1010 7"
b1000 b
b1000 %"
b1000 9"
b10001001000000011001100111001111 ]"
b111010101011101010010011111011 k"
b11000110101101010011010100110000 y"
b10111110100100110001001111111101 )#
b1000 1"
b1000 0"
1I
#1300
b1010 L
0I
#1350
b1101111010010000000000000000000000000000000000000000000000000000000000000000000000000000000000000000000000000000000000000000 O"
0T"
b1000 W"
b110111101001 ^
b110111101001 |
b110111101001 D"
b0 {
b1000 }
b1100011010000001010001101101 ;
b1100011010000001010001101101 X
b1100011010000001010001101101 ""
b1100011010000001010001101101 *#
b10101111001001001100001110001111 <
b10101111001001001100001110001111 Y
b10101111001001001100001110001111 #"
b10101111001001001100001110001111 z"
b1100111000011011110010100000000 =
b1100111000011011110010100000000 V
b1100111000011011110010100000000 ~
b1100111000011011110010100000000 l"
b10110101111001100111001010101111 >
b10110101111001100111001010101111 W
b10110101111001100111001010101111 !"
b10110101111001100111001010101111 ^"
b111 l
b1011 m
b111 j
b1011 k
b1100 8"
1O
b1 >"
b1010 :"
b110111101001 _
b110111101001 s
b110111101001 -"
b0 ."
b1100011010000001010001101101 )#
b10101111001001001100001110001111 y"
b1100111000011011110010100000000 k"
b10110101111001100111001010101111 ]"
b1011 d
b1011 n
b1011 7"
b1001 b
b1001 %"
b1001 9"
b110 ?
b110 \
b110 p
b110 &#
b1010 @
b1010 ]
b1010 o
b1010 v"
b110 A
b110 Z
b110 r
b110 h"
b1010 B
b1010 [
b1010 q
b1010 Z"
b1000 1"
b1000 0"
1I
#1400
b1011 L
0I
#1450
b1001101101001110100010010001000000000000000000000000000000000000000000000000000000000000000000000000000000000000000000000000 O"
b11101000100100010000100110110100 ^
b11101000100100010000100110110100 |
b11101000100100010000100110110100 D"
b0 {
b1000 }
b1000 l
b1100 m
b1000 j
b1100 k
b1101 8"
b111111110100010010001000000000100110110100 _
b111111110100010010001000000000100110110100 s
b111111110100010010001000000000100110110100 -"
b1001 ,"
b1 /"
b1 I"
b1000 W"
b0 ."
b10 >"
b1011 :"
b10110011101110011001011111111101 >
b10110011101110011001011111111101 W
b10110011101110011001011111111101 !"
b10110011101110011001011111111101 ^"
b1000110110000101100100010110001 =
b1000110110000101100100010110001 V
b1000110110000101100100010110001 ~
b1000110110000101100100010110001 l"
b10101110001101010000011110010000 <
b10101110001101010000011110010000 Y
b10101110001101010000011110010000 #"
b10101110001101010000011110010000 z"
b1110110011000010001000100111101 ;
b1110110011000010001000100111101 X
b1110110011000010001000100111101 ""
b1110110011000010001000100111101 *#
b111 ?
b111 \
b111 p
b111 &#
b1011 @
b1011 ]
b1011 o
b1011 v"
b111 A
b111 Z
b111 r
b111 h"
b1011 B
b1011 [
b1011 q
b1011 Z"
b1100 d
b1100 n
b1100 7"
b1 `
b1 $"
b1 ="
b1 C"
b1010 b
b1010 %"
b1010 9"
b1101111010010000000000000000000000000000000000000000000000000000000000000000000000000000000000000000000000000000000000000000 4
b1101111010010000000000000000000000000000000000000000000000000000000000000000000000000000000000000000000000000000000000000000 R
b1101111010010000000000000000000000000000000000000000000000000000000000000000000000000000000000000000000000000000000000000000 N"
b1101111010010000000000000000000000000000000000000000000000000000000000000000000000000000000000000000000000000000000000000000 5#
01
b10110011101110011001011111111101 ]"
b1000110110000101100100010110001 k"
b10101110001101010000011110010000 y"
b1110110011000010001000100111101 )#
b1000 1"
b1000 0"
1I
#1500
b1100 L
0I
